Name,Type,Size,Description
opts,struct,1,Detection parameters
scl,struct,1,"GUI struct for movie brightness contrast and more"
btSt,struct,1,"GUI struct for component status"
ov,containers.Map,8,"GUI struct for overlays in different steps"
bd,containers.Map,3,"GUI struct for regions, landmarks and other boundaries"
datOrg,uint16,Height by Height by Frames,"Raw data after square root"
evt,cell,Event_number,"Detected events linear location"
fts,struct,1,Extracted features
dffMat,single,Event_number by Frames by 2,"dF/F0 curves"
dMat,single,Event_number by Frames by 2,Raw curves
riseLst,cell,Event_number,Onset time maps
featureTable,table,Feature numbers,Selected features for export
userFeatures,table,Feature (combined) numbers by 2,Selected features for overlay function
ftsFilter,struct,1,Extracted features for events after proof reading
evtFilter,cell,Evnet number (filtered),Events after proof reading
dffMatFilter,single,Evnet number (filtered) by Frames by 2,"dF/F0 curves for events after proof reading"
dMatFilter,single,Evnet number (filtered) by Frames by 2,Raw curves for events after proof reading
riseLstFilter,cell,Evnet number (filtered),Onset time map for events after proof reading
evtSelectedList,double,Evnet number (filtered),Index of proof read events w.r.t the complete list of events
maxVal,single,1,Movie scale
stg,struct,1,AQuA pipeline stages
